Dia,Mes,Alt
1;1;La imagen muestra un mapa de la península ibérica con diferentes colores que indican la probabilidad de subsidencia del terreno. Los tonos van del verde oscuro, con probabilidad baja (como en la cornisa cantábrica), al rojo (con probabilidad alta, como en una zona del valle del Guadalquivir.
2;1;Se muestra la Sonda Luna 1, una esfera metálica con numerosas antenas rectas y largas que sobresalen en la parte superior. La imagen está enmarcada por un dibujo en forma de estrella de color naranja y cinco puntas.
3;1;La imagen muestra una foto del investigador Josep Pascual Vila en edad avanzada, calvo y con gafas, vestido de traje oscuro, camisa blanca y corbata. A su alrededor se incluyen ilustraciones de matraces de laboratorio, uno con un líquido burbujeante.
4;1;En el centro, vemos una foto del investigador cuando estaba probablemente en la cincuentena, con pelo peinado hacia atrás y amplia frente. Viste traje y está enmarcado por una estrella de ocho puntas con una celosía de reminiscencias árabes.
5;1;Vemos a una mujer de mediana edad, cabello castaño recogido y flequillo tapando su frente. Sonríe y se encuentra enmarcada dentro de un dibujo de la forma de una estrella. Así mimo, la acompaña un símbolo de un planeta con un anillo en su zona ecuatorial.
6;1;En la fotografía en blanco y negro vemos a una joven mujer, sonriente, delgada y de ancha nariz observando y  manejando una especie de pipeta con la que interviene en un tubo de laboratorio. Viste con ropa de laboratorio blanca y lleva el pelo recogido. Junta a ella se simboliza una compleja y entramada estructura proteica de un enzima.
7;1;En la imagen vemos el logotipo de una institución. Se trata de Tarbiat Modares University, tal y como se indica en el propio sello, en letras también de carácter árabe. Incluye tres arboles esquemáticamente representados con aspecto de cipreses y un gran semiarco amarillo de fondo a modo solar. Junto a este logo, se incluye un símbolo de una llama de fuego.
8;1;Una mujer de mediana edad, bella sonrisa, cabello encasquetado y vestida con bata sobre un jersey de cuello alto mira hacia nosotros. Le acompañan varios símbolos en referencia a sus trabajos: Un bebe gateando, una medalla presidencial de los Estados Unidos, y un estetoscopio médico.
9;1;En la ilustración se muestra en un círculo un mapa de América del Norte en tonos azulados. Sobre éste se  superpone la representación de varias mariposas de colores anaranjados y líneas negras.
10;1;En la imagen vemos un primer plano del rostro enmarcado en una estrella de ocho puntas a una madura y rechoncha mujer  de pelo blanco extremadamente corto, y de pequeñas gafas circulares. Muestra una ligera y cálida sonrisa. Junto a ella se presenta simbólicamente una tesela circular de influencia árabe.
11;1;En la fotografía vemos a un atractivo hombre, de escaso cabello moreno y gafas que mira al horizonte mientras sostiene en su mano una especie de estructura tridimensional de una molécula química realizada a  gran escala. Además, le acompañan otros símbolos como una fotografía de una inflorescencia de centeno y un microscopio. 
12;1;En la imagen vemos a una mujer vestida de bata, con rostro serio y reflexivo mirando a un lado, como escuchando una conversación. Tiene el pelo algo corto y abundante, y una simpática nariz ligeramente respingona en su punta. Tras ella se muestra un fondo de una tela vaquera propia de unos pantalones tejanos, así como el símbolo de una flor de algodón y un matraz con un mortero de laboratorio químico.
13;1;En la imagen aparece una madura mujer de ropas oscuras y un gran collar colgando sobre su jersey. Tiene el pelo no muy largo, castaño, y sus rizos se unen formando anchas olas en el mismo. Lleva gafas y nos observa con una mirada de aspecto inteligente y analítico. Junto a ella se muestra un ejemplar de uno de sus libros y además, el símbolo de un gráfico de barras en referencia a sus estudios estadísticos.
14;1;Un hombre serio, maduro, de barba poblada canosa y ausente de bigote a la moda de las últimas décadas del siglo XIX aparece en la imagen. Su pelo es castaño y muy rizado, abundante en la zona posterior, pero ya escaso en su frente. Además, muestra varias medallas en su solapa. Tras el aparece un mapa físico del sur de Rusia.
15;1;En la ilustración aparece una joven y atractiva mujer, de pelo corto y rubio, piel clara y barbilla partida. Su imagen se enmarca en una estrella de 8 puntas, y junto a ella se representa un cuerpo geométrico muy particular: una doble pirámide cuadrada de aristas curvas.
16;1;Dos hombres de mediana edad, reunidos juntos desenfadadamente, posan en esta imagen. Uno tiene bigote y un gran flequillo ladeado que cae sobre su frente. Otro, el de aspecto mayor, apoya sonriente su cara sobre una mano mientras sostiene un cigarro y parece mirar algo escudriñándolo. Delante de ellos se simboliza una galaxia y tras ellos se muestran nuevos símbolos de estrellas.
17;1;Vemos a dos personas vestidas informales. Por un lado, a una mujer de mediana edad, de pelo corto y liso. Nos sonríe levemente y lleva una chaquetilla sobre camiseta a rayas. A su lado un hombre calvo, de gafas y también de mediana edad, vestido con camisa a cuadros. Tras ellos se representan hebras de ADN y ARN mensajero. También se incluye una ilustración de un coronavirus.
18;1;Vemos un pequeño y compacto cúmulo de bacterias, con aspecto cilíndrico pero con sus extremos redondeado. Son de vistoso color azul. Su aspecto es como el de la píldora médica. Se las representa enmarcadas en el símbolo de una gota de humedad.  En la parte superior se ilustran esquemáticamente unos pulmones.
19;1;En la imagen se ve una hermosa ilustración de una sonda espacial artificial orbitando sobre un planeta parduzco. Tras él se aprecia el reflejo del brillo curvo en el horizonte de un posible satélite de dicho planeta. Tras todo ello, las estrellas y el sol aparecen brillando fríamente en el fondo. El artefacto no parece de gran tamaño, y está compuesto por varias partes geométricas y de diferentes colores y texturas.
20;1;En la imagen vemos una fotografía en blanco y negro de una mujer sonriente a la cámara. Es rubia, de mediana edad y con el pelo a media melena y rizoso. Está vestida con una especie de peto que deja la piel en sus brazos, hombros y cuello al sol y al aire libre. Lo más espectacular es que posa junto a una gran leona junto a la que se acurruca con toda tranquilidad. 
21;1;En la fotografía vemos a un joven oriental engalanado con un impecable traje del ejército de su país con los cuellos altos y que incluye un tocado con una gorra o especie de visera similar a las policiales. El joven lleva unas gafas redondeadas, y tiene la tez algo morena así como labios carnosos. Junto a él se representan los símbolos de un estetoscopio y de una mascarilla.
22;1;En la ilustración se muestra una lanzadera de despegue terrestre vertical  junto a un enorme cohete a punto de ser enviado al espacio en la tradicional maniobra de ignición tras la cuenta atrás. Símbolos de estrellas acompañan esta imagen.
23;1;En la imagen vemos a una anciana mujer, de pelo rizado y castaño, vestida con su bata de laboratorio mientras sujeta entre sus manos un libro. Le acompañan varios símbolos que podemos enumerar a continuación: una medalla del premio nobel, un símbolo en referencia a medicamentos, otros símbolos sobre matraces y material de laboratorio; y una estructura tridimensional de una molécula química. 
24;1;Vemos a un hombre maduro vistiendo con traje gris y fina corbata. Tiene el pelo corto y bastante cano, con gafas a la usanza americana de mediados del siglo XX. Tras el aparece un aparato de revestimiento metálico, con forma de torre rectangular, y con una portezuela en su mitad superior de aspecto mate.
25;1;En la imagen se muestra una mano extendida que sujeta una minúscula caja que recuerda a una pecera. Sobre ella se ilustran dos peces pequeños, de grandes ojos negros redondeados y de cabeza en matices purpuras. Recuerdan a los renacuajos si no fuera por sus vivos colores.
26;1;Un hombre de chaqueta a cuadros está apostado frente a un antiguo aparato de televisión muestras lo regula con una de sus manos. Dicho aparato parece un mueble en el que se han integrado ruletas de regulación, una pantalla de no muy gran tamaño y un altavoz circular a su derecha de dimensiones equivalentes a dicha pantalla.
27;1;En la ilustración vemos una especie de plano coloreado de las orbitas elípticas de los planetas menores del sistema solar. Vemos incluso la órbita de uno de los asteroides, el  denominado “Wikipedia”. Tenemos además un símbolo de una galaxia, y el propio logo de Wikipedia acompañando el conjunto ilustrativo de esta imagen.
28;1;En la imagen vemos la pintura en blanco y negro de un hombre del siglo dieciocho con su vestido aristócrata de toga, cuellos blancos de puntillas y cabellera morena con rizos de bucle. Tiene una banda sobre sus atuendos y está apoyando su mano derecha en un tomo grueso de un libro que sostiene en vertical. Junto a él se muestra una bombilla como símbolo de la idea genial.
29;1;En la imagen vemos a una fotografía muy antigua con claro contraste blanco y negro de una mujer seria vestida con un atuendo oscuro de graduación universitaria. Se le acompaña con símbolos de frascos de medicinas, matraces y morteros haciendo referencia a su profesión farmacéutica.
30;1;En la ilustración encontramos a una mujer mayor, con media melena corta y un lazo anudado a su cuello que nos mira fijamente. Su imagen se ha enmarcado dentro de una estrella de cinco puntas, y además se le añade una representación de una galaxia, todo ello para hacer referencia a sus trabajos en dicha temática.
31;1;Vemos la imagen de un hombre delgado, calvo y de gruesas patillas que se extienden hasta acabar rematadas en bigote. Va vestido con un traje gris y pajarita, y muestra una mirada severa. Ante él se presenta un telescopio moderno  y se añade el símbolo de unas gafas de optometrista en relación al campo físico de la óptica.
1;2;Vemos  una antigua fotografía en blanco y negro de una alegre mujer ataviada con un traje que parece de exploración, con largas botas y un amplio gorro. Se apoya con una mano en un largo palo que le llega a la altura de su mandíbula. Tras ella se muestra un paisaje de estromatolitos, es decir, estructuras microorgánicas fosilizadas en carbonato que surgen del suelo como si fueran coliflores calcáreas.
2;2;Vemos el rostro en blanco y negro de una bella mujer, pelo corto moreno suavemente rizado, ojos brillantes y boca severa. Mira hacia el horizonte en actitud reflexiva. Junto a ella aparecen los símbolos de una calculadora y un lapicero.
3;2;En esta imagen vemos varios símbolos por separado. En el centro la silueta de un roedor. Sobre él una jeringuilla a punto de inyectarle algo de cara a una experimentación. Y en la esquina izquierda una especie de célula esférica tumoral representada en colores azules y rojos y con gran detalle a nivel de su superficie.
4;2;En la ilustración vemos, enmarcado en una estrella de 8 puntas, una fachada de grandes arcos andalusíes, sujetados por finas columnas. Sostienen una balaustrada de madera y presiden una especie de patio arbustivo con un pequeño estanque de agua poblado de nenúfares. Sobre esta imagen aparece una miniatura de un libro titulado Al-Ándalus
5;2;En la imagen vemos un montón de pequeños objetos de plástico rígido, la baquelita. Encontramos taponcitos, botones, cuantas de plástico para bisutería, etc. Hay una gran gama de formas geométricas y colores; pero en todos se aprecia el brillo mate del plástico rígido.
6;2;En la imagen vemos una fotografía del rostro de una seria y joven mujer morena. Tiene una boca pequeña, mandíbulas marcadas, y piel pálida. Lleva el tocado del birrete de la graduación que le cubre el cabello y la frente. Junto a su foto, se presentan otros símbolos: un matraz en efervescencia, un bote de medicamentos y además una imagen ampliada de bacterias purpuras en un medio pardo.
7;2;En la imagen vemos en un primer plano a un reflexivo hombre vestido con ropas del siglo XIX. Tiene pelo blanco espeso y rizado, con profundas entradas. Además lleva barba y unas pequeñas gafas circulares. Tras él se representa un hermoso paisaje de pradera con indicaciones y dibujos ampliados de varios de los seres vivos que allí cohabitan.
8;2;En la imagen se ha recurrido a una fotografía en color donde se observa a mucha gente, sobre todo niños, alrededor de un foso que están cavando con una pala. En el medio del foso ya se ha plantado un pequeño arbolito. Muchas personas aparecen ataviadas con ropas folclóricas como si celebraran una fiesta popular.
9;2;En la imagen se muestra un frasco metalizado y sellado. Está bien etiquetado, y se puede desprender de su observación que se trata de una vacuna contra la peste. Además, en la ilustración aparece simbología relativa a jeringuillas para vacunación y viales.
10;2;Vemos a una joven mujer vestida de blanco como las antiguas enfermeras. Posa para la foto con el pelo abultado y suelto, mostrando su melena rizada y morena. Sonríe tímidamente y al hacerlo se le ruborizan las mejillas. Junto a ella, además, se han plasmado varios símbolos, como un mapa de américa latina, o una bolsa de donación y trasfusión de sangre.
11;2;Vemos una antigua fotografía de una joven muchacha de ojos pequeños, labios anchos y piel de porcelana. Lleva el pelo abundante y levantado hacia atrás y viste con un jersey y un alto cuello blanco. Junto a ella se añade la imagen de un trilobites.
12;2;En la imagen vemos a una sonriente mujer madura, de pelo corto y ondulado, con ciertas zonas canosas. Viste su bata de laboratorio y lleva colgando de su cuello unas gafas. Junto a ella se han incorporado fotos diversas de ammonites,  así como simbología relativa a la paleontología.
13;2;En la imagen vemos un curioso artefacto cubico. Es una caja oscura pero que recuerda a una mesita de doble cajonera. En lugar de los dos cajones, lleva placas probablemente solares. En los rebordes hay electrónica, botones y sistemas de control. Tiene además antenas en algunos puntos. En otra parte de la ilustración se representa la imagen simbólica típica de un satélite de comunicaciones.
14;2;Vemos en la imagen a una joven mujer vestida con ropajes negros y cuello blanco con pequeñas volutas. Lleva también un crucifijo al cuello. Es una chica hermosa y de rostro calmado, con pelo castaño y aplastado, peinado con raya en medio. Junto a ella hay símbolos sobre temas microbiológicos.
15;2;Una veterana mujer posa de perfil. Tiene un rostro alargado, serio y su canoso pelo está recogido en un grueso moño. Junta a su imagen se muestra un símbolo de un cerebro visto desde arriba.
16;2;Vemos una fotografía de una mujer oriental, de pelo corto, labios gruesos y rostro serio con gafas redondas. Junto a ella aparecen símbolos figurativos sobre arboles moribundos y una nube toxica precipitando gotas de lluvia.
17;2;En la imagen vemos el rostro en piedra de una persona ataviada a la usanza musulmana. Muestra su barba y su turbante en la escultura. También aparece una fotografía de un libro del Corán abierto en alguna de sus páginas.
18;2;En la imagen se ve una escultura de un hombre joven sosteniendo una especie de pergamino. Esta ataviado a la moda renacentista, tocado con un pequeño gorro ajustado de donde sobresale su pelo corto pero voluminosos en los laterales. También se incluye la portada de uno de sus libros sobre criptografía.
19;2;En la ilustración vemos enmarcada en una estrella, un dibujo de un hombre maduro con poblada barba blanca, túnica y turbante. Sostiene entre sus manos una especie de artefacto para el estudio de grados celestes. Además se representa simbólicamente junto a él una figura cónica en referencia a la geometría.
20;2;Observamos en la imagen una mujer de mediana edad,  de pelo rubio, corto y muy rizado, vestida con bata. Este concentrada repasando unos archivos que tiene entre sus manos. Junto a ella se incluye la fotografía del condimento Vegeta y símbolos relativos a la química y la gastronomía.
21;2;En la ilustración vemos una simpática imagen de una locomotora muy antigua construida en madera y reforzada con aros de acero. Consta también de un vagoncito que se asemeja a una remolque, construido también en madera y con un barril en su interior. Tiene una larga chimenea metálica y ruedas parecidas a las de las carretas.
22;2;En la imagen vemos el rostro de un individuo joven, con barba y rasgos alargados. Tiene el pelo escaso y lo trata de cubrir con su peinado a raya,.  Muestra una mirada incisiva y tiene la boca semiabierta como tratando de murmurar algo. Junto a él se representan símbolos de ondas y una bombilla en honor a sus geniales ideas.
23;2;En la fotografía en blanco y negro vemos a dos doctores y una enfermera vestidos con sus batas y rodeando a un niño sentado en una mesa pupitre al que vacunan. Se acompaña la imagen con el símbolo de un vial y una jeringuilla.
24;2;En la imagen vemos una especie de disco con imágenes. En su parte más exterior, el disco cuenta con una gran cantidad de ilustraciones de cabezas de pájaros situadas como si fueran las horas en un reloj. En el centro del disco vemos la figura de un joven Charles Darwin sentado y con sus manos cruzadas.
25;2;En la imagen vemos el rostro de una joven mujer, abrigada con un grueso abrigo de cuellos muy peludos y un sombrero sin alas ajustado a su cabeza. Junto a ella se ha situado una placa de Petri con abundantes colonias y el símbolo de un microscopio.
26;2;Vemos la fotografía de una joven mujer de pelo corto y liso, con ligero flequillo. Tiene unos ojos grandes, con cejas muy poco pobladas y una nariz afilada. Nos mira sonriente. Junto a ella se representan imágenes de virus, la doble hebra de ADN y una jeringuilla con un vial de vacunación.
27;2;Vemos una fotografía del rostro de una anciana y alegre mujer de gafas. Tiene su alborotado cabello totalmente blanco y su piel se muestra muy curtida. Junto a ella se han representado símbolos en referencia a la Paleontología.
28;2;En la imagen vemos el rostro de una fornida mujer muy sonriente. Tiene un gesto alegre, y muestra unos sonrientes ojos a través de sus finas gafas. Su cabello es moreno y lo lleva revuelto  como si fuera un esponjoso gorro. Tras ellas se aprecian formaciones kársticas rocosas, como si fueran rocas amontonadas a punto de caer, generando un hermoso paisaje de fábula.
1;3;En la imagen vemos la fotografía de una mujer de mediana edad, con corta melena rubia y gafas. Tiene el rostro redondeado y lleva bata y un pañuelo amplio suelto en su cuello. Junto a ella se simbolizan esquemáticamente un microscopio y una placa de cultivo con bacterias.
2;3;En la imagen vemos una ilustración de un hombre de mediana edad, delgado, serio y de frente amplia. Lleva el pelo muy corto y viste con una abrigada casaca del tipo Napoleónico. Sobre él se ha incluido la imagen de una espectacular planta de flor roja, la planta de Navidad.
3;3;En la imagen vemos a una joven y risueña mujer morena. Lleva el pelo con un flequillo abombado y alzado, muy tipo americano de los años 40 y 50. Le acompañan el símbolo de la radioactividad y la representación de un átomo en modelo orbital.
4;3;En la fotografía aparece una joven y sonriente mujer de pelo corto, moreno y ondulado, de finos labios y redondeadas mejillas. Tiene la mirada perdida en el horizonte. Se representan junto a ella el símbolo de un estetoscopio y una persona de espaldas sin pelo a consecuencia de algún tratamiento contra el cáncer.
5;3;Vemos en la imagen a una mujer joven oriental, con el pelo muy peinado y recogido hacia atrás. Tiene un rostro redondo y pálido, y muestra una leve sonrisa. Se representa también un átomo en modelo orbital.
6;3;En la imagen coloreada vemos un ambiente verde azulado de un arrecife bajo el agua con un hermoso pez payaso de vivos colores al frente acompañado de otro más pequeño.
7;3;En la ilustración vemos una fotografía en blanco y negro de una joven mujer vestida y peinada a la usanza americana de mediados de siglo xx con un traje ajustado y de marcadas hombreras, así como una melena morena y frondosa. Está sentada junto a un numeroso conjunto de bloques de computación que maneja mientras consulta sus papeles.
8;3;Vemos a un hombre delgado de larga y afilada barba y extensos bigotes negros, ataviado con un enorme cuello de lechuguilla o gorguera típico del siglo XVII. Símbolos de planetas y estrellas se han unido junto a su imagen.
9;3;En la ilustración vemos la fotografía de una hermosa y frágil mujer joven, elegantemente vestida de modo festivo tipo coctel, y con un bello recogido en su pelo. Está ante un instrumento musical theremin, al que hace sonar con sus gestos.  Vemos junto a su foto símbolos de ondas y claves de sol.
10;3;En la imagen vemos el feliz rostro de un hombre maduro y delgado. Tiene barba blanca, unas gafas de gran cristal y  fino alambre tras las que se encuentran sus sonrientes ojos. Tiene el pelo corto y oscuro. Junto a él se plasma el símbolo de un microscopio y de la medalla Nobel, junto a dos bacterias caricaturizadas.
11;3;Vemos en la imagen a dos personas jóvenes, atractivas y de mirada perdida en el horizonte. Se trata de una mujer morena de pelo oscuro y rizado, con rasgos de estrella de Hollywood, y un hombre menudo bien afeitado, de fuerte mandíbula y peinado a raya. Tras ellos se ha plasmado un gran símbolo de red inalámbrica y la típica bombilla de la genialidad.
12;3;Vemos una imagen de la pintura de un hombre con su peluca de rizos y bucles blancos y su toga oscura. Es de mediana edad, afeitado y de rasgos angulosos. Junto a él la portada de un libro que reza: Bibliotheca Arabico-Hispana Escurialensis.
13;3;Vemos una fotografía en blanco y negro de una mujer aun joven y de pelo liso a media melena que le cubre flequillo y los laterales de su rostro. Sonríe con su mirada cansada, mientras posa bien abrigada con una gruesa cazadora. Sobre ella se representa un colorido planeta tierra sobre una gran hoja verde.
14;3;En la imagen vemos a medio cuerpo a dos hombres de edad avanzada, ambos de barba y con el pelo blanco. Uno está situado de perfil, lleva gafas y traje oscuro. Otro está de frente con bata blanca y lleva su pelo algo más largo. A su lado hay un antiguo microscopio óptico. La imagen va acompañada de otros símbolos como un matraz burbujeante, un estetoscopio y una medalla nobel.
15;3;En la imagen vemos una antigua fotografía en blanco y negro del torso de un hombre elegantemente vestido. Lleva chaqueta, camisa blanca y pajarita. Apenas tiene ya pelo en la parte superior de su cabeza, pero luce unas largas patillas. Mira serio hacia el horizonte. Junto a él se encuentra el símbolo de un grifo con una gran gota toxica, a juzgar por el símbolo que se ha ubicado a su lado y los dibujos de bacterias de su interior.
16;3;En la imagen aparece un hombre fornido, de mediana edad y pelo muy rizado y blanco. Viste elegante una casaca oscura y se parcia una medalla colgando de su cuello. Junto a él aparece un gráfico de disco en el que se sitúan diferentes y sencillas fórmulas eléctricas de intensidad, voltaje y resistencia en medio de secciones coloreadas.
17;3;Vemos una representación dibujada muy realista en lápiz o plumilla, tipo grabado, de dos hombres bien vestidos. Uno, ataviado como un doctor,  examina la boca del otro con un extraño instrumento que porta. En la imagen se añade un símbolo de una bombilla en honor a las brillantes ideas.
18;3;En la imagen vemos el reconocible aspecto de un astronauta ruso mirándonos con la visera de su casco alzada. Junto a él aparecen símbolos de estrellas así como de un satélite o vehículo espacial pequeño.
19;3;En la imagen aparece la fotografía de un sonriente matrimonio de mediana edad bien vestido. Ella tiene pelo algo corto, moreno y viste una fina chaqueta oscura. El, situado detrás, tiene marcados rasgos en el rostro, pelo corto y oscuro y viste un traje gris. Junto a ellos se expone el símbolo de la radioactividad y de la medalla Nobel.
20;3;En la ilustración se muestra una estructura química tridimensional que representa átomos y enlaces en una configuración espacial concreta. Se acompaña a este modelo molecular con el símbolo de un matraz burbujeante.
