Dia,Mes,etiqueta
1,1,@IGME1849
2,1,@PlanetarioMad
3,1,@bibliotecasCSIC
4,1,@LettresSorbonne @eea_csic
5,1,@NASA_es
6,1,@SEBBM_es
7,1,@icmmcsic
8,1,@ASCENPA
9,1,@MariposaMonar
10,1,@CanalUGR @Musarqgranada @eea_csic
11,1,@JALopezSaez
12,1,@mujerconciencia
13,1,@MartaMachoS
14,1,@adrifloresrvl
15,1,@ClaraGrima
16,1,@Carrie_Catgirl
17,1,@Nopanaden
18,1,@Ciencia_miuda
19,1,@geologoenapuros
20,1,@chatarreranordi
21,1,@MasTwitts
22,1,@PatriLiVG
23,1,@PRISMAciencia
24,1,@metilado
25,1,@Mylestring
26,1,@la2_tve
27,1,@SEA_astronomia
28,1,@CCCientifica
29,1,@boticariagarcia
30,1,@epcienfuegos
31,1,@pablogilah
1,2,@El_Pakozoico
2,2,@Aurora_Ranchal
3,2,@ALymphsLife
4,2,@eea_csic
5,2,@ictp_promocion
6,2,@farmagemma
7,2,@BlogSimbiosis
8,2,@alfanhui93
9,2,@FacVetLeon
10,2,@CuestaLozano
11,2,@11defebreroES
12,2,@hallegrosso
13,2,@xatcobeo
14,2,@ProfaDeQuimica
15,2,@psiquiatraca
16,2,@Zientzia
17,2,@eea_csic
18,2,@MartaMachoS
19,2,@_ICMAT
20,2,@CIAL_CSIC_UAM
21,2,@M_Ferrocarril
23,2,@CAV_AEP
24,2,@sesbe_org
25,2,@joseramosvivas
26,2,@HepatitisSEV
27,2,@CRCpaleos
28,2,@IGME1849
1,3,@NietoAngela
2,3,@RJBOTANICO
3,3,@ProyectoMeitner
4,3,@CICancer_com
5,3,@winspain
